#
# There is insufficient memory for the Java Runtime Environment to continue.
# Native memory allocation (malloc) failed to allocate 32744 bytes for ChunkPool::allocate
# Possible reasons:
#   The system is out of physical RAM or swap space
#   The process is running with CompressedOops enabled, and the Java Heap may be blocking the growth of the native heap
# Possible solutions:
#   Reduce memory load on the system
#   Increase physical memory or swap space
#   Check if swap backing store is full
#   Decrease Java heap size (-Xmx/-Xms)
#   Decrease number of Java threads
#   Decrease Java thread stack sizes (-Xss)
#   Set larger code cache with -XX:ReservedCodeCacheSize=
#   JVM is running with Unscaled Compressed Oops mode in which the Java heap is
#     placed in the first 4GB address space. The Java Heap base address is the
#     maximum limit for the native heap growth. Please use -XX:HeapBaseMinAddress
#     to set the Java Heap base and to place the Java Heap above 4GB virtual address.
# This output file may be truncated or incomplete.
#
#  Out of Memory Error (allocation.cpp:272), pid=13880, tid=0x0000000000000b0c
#
# JRE version: OpenJDK Runtime Environment (8.0_292-b10) (build 1.8.0_292-b10)
# Java VM: OpenJDK 64-Bit Server VM (25.292-b10 mixed mode windows-amd64 compressed oops)
# Failed to write core dump. Minidumps are not enabled by default on client versions of Windows
#

---------------  T H R E A D  ---------------

Current thread (0x00000194fbc2b000):  JavaThread "C2 CompilerThread0" daemon [_thread_in_native, id=2828, stack(0x0000001b54d00000,0x0000001b54e00000)]

Stack: [0x0000001b54d00000,0x0000001b54e00000]
[error occurred during error reporting (printing stack bounds), id 0xc0000005]

Native frames: (J=compiled Java code, j=interpreted, Vv=VM code, C=native code)


Current CompileTask:
C2:  19504 2896   !   4       com.sun.beans.TypeResolver::resolve (274 bytes)


---------------  P R O C E S S  ---------------

Java Threads: ( => current thread )
  0x00000194fce1c800 JavaThread "Timer-1" [_thread_blocked, id=12124, stack(0x0000001b56c00000,0x0000001b56d00000)]
  0x00000194fce1b000 JavaThread "pool-1-thread-23" [_thread_blocked, id=6036, stack(0x0000001b56b00000,0x0000001b56c00000)]
  0x00000194fce1a800 JavaThread "DestroyJavaVM" [_thread_blocked, id=8036, stack(0x0000001b54300000,0x0000001b54400000)]
  0x00000194fce1c000 JavaThread "pool-1-thread-22" [_thread_blocked, id=5560, stack(0x0000001b56a00000,0x0000001b56b00000)]
  0x00000194fce19800 JavaThread "pool-1-thread-21" [_thread_blocked, id=1984, stack(0x0000001b56900000,0x0000001b56a00000)]
  0x00000194fce18800 JavaThread "pool-1-thread-20" [_thread_in_vm, id=15132, stack(0x0000001b56800000,0x0000001b56900000)]
  0x00000194fce15000 JavaThread "pool-1-thread-19" [_thread_blocked, id=10528, stack(0x0000001b56700000,0x0000001b56800000)]
  0x00000194fce18000 JavaThread "pool-1-thread-18" [_thread_blocked, id=14544, stack(0x0000001b56600000,0x0000001b56700000)]
  0x00000194fce11800 JavaThread "pool-1-thread-17" [_thread_blocked, id=10372, stack(0x0000001b56500000,0x0000001b56600000)]
  0x00000194fce14000 JavaThread "pool-1-thread-16" [_thread_blocked, id=7660, stack(0x0000001b56400000,0x0000001b56500000)]
  0x00000194fce13000 JavaThread "pool-1-thread-15" [_thread_blocked, id=15608, stack(0x0000001b56300000,0x0000001b56400000)]
  0x00000194fce17000 JavaThread "pool-1-thread-14" [_thread_blocked, id=9476, stack(0x0000001b56200000,0x0000001b56300000)]
  0x00000194fce16800 JavaThread "pool-1-thread-13" [_thread_blocked, id=3052, stack(0x0000001b56100000,0x0000001b56200000)]
  0x00000194fce12800 JavaThread "pool-1-thread-12" [_thread_blocked, id=5968, stack(0x0000001b56000000,0x0000001b56100000)]
  0x00000194fcee2000 JavaThread "pool-1-thread-11" [_thread_blocked, id=372, stack(0x0000001b55f00000,0x0000001b56000000)]
  0x00000194fcee1000 JavaThread "pool-1-thread-10" [_thread_blocked, id=12084, stack(0x0000001b55e00000,0x0000001b55f00000)]
  0x00000194fcee0000 JavaThread "pool-1-thread-9" [_thread_blocked, id=2008, stack(0x0000001b55d00000,0x0000001b55e00000)]
  0x00000194fcee2800 JavaThread "pool-1-thread-8" [_thread_blocked, id=7736, stack(0x0000001b55c00000,0x0000001b55d00000)]
  0x00000194fcee3800 JavaThread "pool-1-thread-7" [_thread_blocked, id=12476, stack(0x0000001b55b00000,0x0000001b55c00000)]
  0x00000194fbce3800 JavaThread "pool-1-thread-6" [_thread_blocked, id=3680, stack(0x0000001b55a00000,0x0000001b55b00000)]
  0x00000194fce50800 JavaThread "pool-1-thread-5" [_thread_blocked, id=5836, stack(0x0000001b55900000,0x0000001b55a00000)]
  0x00000194fce50000 JavaThread "pool-1-thread-4" [_thread_blocked, id=11864, stack(0x0000001b55800000,0x0000001b55900000)]
  0x00000194fce4f000 JavaThread "pool-1-thread-3" [_thread_blocked, id=15408, stack(0x0000001b55700000,0x0000001b55800000)]
  0x00000194fce4e800 JavaThread "pool-1-thread-2" [_thread_blocked, id=11844, stack(0x0000001b55600000,0x0000001b55700000)]
  0x00000194fcec4800 JavaThread "pool-1-thread-1" [_thread_blocked, id=8944, stack(0x0000001b55500000,0x0000001b55600000)]
  0x00000194fcec1000 JavaThread "Thread-3" [_thread_in_native, id=4776, stack(0x0000001b55400000,0x0000001b55500000)]
  0x00000194fd35e800 JavaThread "server-timer" daemon [_thread_blocked, id=10852, stack(0x0000001b55200000,0x0000001b55300000)]
  0x00000194fbcfa000 JavaThread "Service Thread" daemon [_thread_blocked, id=6532, stack(0x0000001b55000000,0x0000001b55100000)]
  0x00000194fbc7f000 JavaThread "C1 CompilerThread2" daemon [_thread_blocked, id=1204, stack(0x0000001b54f00000,0x0000001b55000000)]
  0x00000194fbc74000 JavaThread "C2 CompilerThread1" daemon [_thread_in_native, id=2164, stack(0x0000001b54e00000,0x0000001b54f00000)]
=>0x00000194fbc2b000 JavaThread "C2 CompilerThread0" daemon [_thread_in_native, id=2828, stack(0x0000001b54d00000,0x0000001b54e00000)]
  0x00000194fbc25000 JavaThread "Attach Listener" daemon [_thread_blocked, id=10940, stack(0x0000001b54c00000,0x0000001b54d00000)]
  0x00000194fbc70800 JavaThread "Signal Dispatcher" daemon [_thread_blocked, id=6260, stack(0x0000001b54b00000,0x0000001b54c00000)]
  0x00000194fbbfd800 JavaThread "Finalizer" daemon [_thread_blocked, id=7772, stack(0x0000001b54a00000,0x0000001b54b00000)]
  0x00000194fbbf6000 JavaThread "Reference Handler" daemon [_thread_blocked, id=3612, stack(0x0000001b54900000,0x0000001b54a00000)]

Other Threads:
  0x00000194fbbd3000 VMThread [stack: 0x0000001b54800000,0x0000001b54900000] [id=1384]
  0x00000194fbd04800 WatcherThread [stack: 0x0000001b55100000,0x0000001b55200000] [id=14396]

VM state:not at safepoint (normal execution)

VM Mutex/Monitor currently owned by a thread: None

heap address: 0x0000000080000000, size: 2048 MB, Compressed Oops mode: 32-bit
Narrow klass base: 0x0000000000000000, Narrow klass shift: 3
Compressed class space size: 1073741824 Address: 0x0000000100000000

Heap:
 PSYoungGen      total 76288K, used 48065K [0x00000000d5580000, 0x00000000dcc00000, 0x0000000100000000)
  eden space 65536K, 57% used [0x00000000d5580000,0x00000000d7a0afd8,0x00000000d9580000)
  from space 10752K, 99% used [0x00000000da000000,0x00000000daa65528,0x00000000daa80000)
  to   space 10752K, 0% used [0x00000000d9580000,0x00000000d9580000,0x00000000da000000)
 ParOldGen       total 175104K, used 11469K [0x0000000080000000, 0x000000008ab00000, 0x00000000d5580000)
  object space 175104K, 6% used [0x0000000080000000,0x0000000080b33480,0x000000008ab00000)
 Metaspace       used 25890K, capacity 27050K, committed 27264K, reserved 1075200K
  class space    used 3435K, capacity 3694K, committed 3712K, reserved 1048576K

Card table byte_map: [0x00000194f6110000,0x00000194f6520000] byte_map_base: 0x00000194f5d10000

Marking Bits: (ParMarkBitMap*) 0x000000006c86c820
 Begin Bits: [0x00000194f67d0000, 0x00000194f87d0000)
 End Bits:   [0x00000194f87d0000, 0x00000194fa7d0000)

Polling page: 0x00000194f4380000

CodeCache: size=245760Kb used=10682Kb max_used=10682Kb free=235077Kb
 bounds [0x0000019480000000, 0x0000019480a80000, 0x000001948f000000]
 total_blobs=3672 nmethods=2990 adapters=594
 compilation: enabled

Compilation events (10 events):
Event: 19.477 Thread 0x00000194fbc7f000 nmethod 3063 0x0000019480a6c110 code [0x0000019480a6c280, 0x0000019480a6c4d0]
Event: 19.477 Thread 0x00000194fbc7f000 3064   !   3       org.codehaus.groovy.runtime.callsite.PogoMetaMethodSite::nonParamCheck (73 bytes)
Event: 19.478 Thread 0x00000194fbc7f000 nmethod 3064 0x0000019480a6c590 code [0x0000019480a6c7a0, 0x0000019480a6d690]
Event: 19.480 Thread 0x00000194fbc7f000 3065       3       org.codehaus.groovy.reflection.CachedClass$2$$Lambda$21/361993357::test (8 bytes)
Event: 19.480 Thread 0x00000194fbc7f000 nmethod 3065 0x0000019480a6ddd0 code [0x0000019480a6df60, 0x0000019480a6e2b0]
Event: 19.480 Thread 0x00000194fbc7f000 3066       3       org.codehaus.groovy.reflection.CachedClass$2::lambda$initValue$1 (7 bytes)
Event: 19.480 Thread 0x00000194fbc7f000 nmethod 3066 0x0000019480a6e410 code [0x0000019480a6e580, 0x0000019480a6e770]
Event: 19.484 Thread 0x00000194fbc7f000 3067       3       org.codehaus.groovy.reflection.CachedClass$2$$Lambda$22/2015601401::apply (12 bytes)
Event: 19.485 Thread 0x00000194fbc7f000 nmethod 3067 0x0000019480a6e850 code [0x0000019480a6e9e0, 0x0000019480a6ee38]
Event: 19.486 Thread 0x00000194fbc7f000 3068       3       java.beans.PropertyDescriptor::<init> (112 bytes)

GC Heap History (10 events):
Event: 10.290 GC heap before
{Heap before GC invocations=1 (full 0):
 PSYoungGen      total 76288K, used 65536K [0x00000000d5580000, 0x00000000daa80000, 0x0000000100000000)
  eden space 65536K, 100% used [0x00000000d5580000,0x00000000d9580000,0x00000000d9580000)
  from space 10752K, 0% used [0x00000000da000000,0x00000000da000000,0x00000000daa80000)
  to   space 10752K, 0% used [0x00000000d9580000,0x00000000d9580000,0x00000000da000000)
 ParOldGen       total 175104K, used 0K [0x0000000080000000, 0x000000008ab00000, 0x00000000d5580000)
  object space 175104K, 0% used [0x0000000080000000,0x0000000080000000,0x000000008ab00000)
 Metaspace       used 11718K, capacity 12082K, committed 12160K, reserved 1060864K
  class space    used 1291K, capacity 1402K, committed 1408K, reserved 1048576K
Event: 10.378 GC heap after
Heap after GC invocations=1 (full 0):
 PSYoungGen      total 76288K, used 7444K [0x00000000d5580000, 0x00000000daa80000, 0x0000000100000000)
  eden space 65536K, 0% used [0x00000000d5580000,0x00000000d5580000,0x00000000d9580000)
  from space 10752K, 69% used [0x00000000d9580000,0x00000000d9cc5118,0x00000000da000000)
  to   space 10752K, 0% used [0x00000000da000000,0x00000000da000000,0x00000000daa80000)
 ParOldGen       total 175104K, used 0K [0x0000000080000000, 0x000000008ab00000, 0x00000000d5580000)
  object space 175104K, 0% used [0x0000000080000000,0x0000000080000000,0x000000008ab00000)
 Metaspace       used 11718K, capacity 12082K, committed 12160K, reserved 1060864K
  class space    used 1291K, capacity 1402K, committed 1408K, reserved 1048576K
}
Event: 13.874 GC heap before
{Heap before GC invocations=2 (full 0):
 PSYoungGen      total 76288K, used 72980K [0x00000000d5580000, 0x00000000daa80000, 0x0000000100000000)
  eden space 65536K, 100% used [0x00000000d5580000,0x00000000d9580000,0x00000000d9580000)
  from space 10752K, 69% used [0x00000000d9580000,0x00000000d9cc5118,0x00000000da000000)
  to   space 10752K, 0% used [0x00000000da000000,0x00000000da000000,0x00000000daa80000)
 ParOldGen       total 175104K, used 0K [0x0000000080000000, 0x000000008ab00000, 0x00000000d5580000)
  object space 175104K, 0% used [0x0000000080000000,0x0000000080000000,0x000000008ab00000)
 Metaspace       used 16501K, capacity 17174K, committed 17408K, reserved 1064960K
  class space    used 2039K, capacity 2230K, committed 2304K, reserved 1048576K
Event: 13.893 GC heap after
Heap after GC invocations=2 (full 0):
 PSYoungGen      total 76288K, used 10184K [0x00000000d5580000, 0x00000000daa80000, 0x0000000100000000)
  eden space 65536K, 0% used [0x00000000d5580000,0x00000000d5580000,0x00000000d9580000)
  from space 10752K, 94% used [0x00000000da000000,0x00000000da9f20d8,0x00000000daa80000)
  to   space 10752K, 0% used [0x00000000d9580000,0x00000000d9580000,0x00000000da000000)
 ParOldGen       total 175104K, used 16K [0x0000000080000000, 0x000000008ab00000, 0x00000000d5580000)
  object space 175104K, 0% used [0x0000000080000000,0x0000000080004000,0x000000008ab00000)
 Metaspace       used 16501K, capacity 17174K, committed 17408K, reserved 1064960K
  class space    used 2039K, capacity 2230K, committed 2304K, reserved 1048576K
}
Event: 16.136 GC heap before
{Heap before GC invocations=3 (full 0):
 PSYoungGen      total 76288K, used 32474K [0x00000000d5580000, 0x00000000daa80000, 0x0000000100000000)
  eden space 65536K, 34% used [0x00000000d5580000,0x00000000d6b447b8,0x00000000d9580000)
  from space 10752K, 94% used [0x00000000da000000,0x00000000da9f20d8,0x00000000daa80000)
  to   space 10752K, 0% used [0x00000000d9580000,0x00000000d9580000,0x00000000da000000)
 ParOldGen       total 175104K, used 16K [0x0000000080000000, 0x000000008ab00000, 0x00000000d5580000)
  object space 175104K, 0% used [0x0000000080000000,0x0000000080004000,0x000000008ab00000)
 Metaspace       used 19994K, capacity 21110K, committed 21248K, reserved 1067008K
  class space    used 2477K, capacity 2711K, committed 2816K, reserved 1048576K
Event: 16.161 GC heap after
Heap after GC invocations=3 (full 0):
 PSYoungGen      total 76288K, used 10740K [0x00000000d5580000, 0x00000000daa80000, 0x0000000100000000)
  eden space 65536K, 0% used [0x00000000d5580000,0x00000000d5580000,0x00000000d9580000)
  from space 10752K, 99% used [0x00000000d9580000,0x00000000d9ffd1d8,0x00000000da000000)
  to   space 10752K, 0% used [0x00000000da000000,0x00000000da000000,0x00000000daa80000)
 ParOldGen       total 175104K, used 996K [0x0000000080000000, 0x000000008ab00000, 0x00000000d5580000)
  object space 175104K, 0% used [0x0000000080000000,0x00000000800f9368,0x000000008ab00000)
 Metaspace       used 19994K, capacity 21110K, committed 21248K, reserved 1067008K
  class space    used 2477K, capacity 2711K, committed 2816K, reserved 1048576K
}
Event: 16.161 GC heap before
{Heap before GC invocations=4 (full 1):
 PSYoungGen      total 76288K, used 10740K [0x00000000d5580000, 0x00000000daa80000, 0x0000000100000000)
  eden space 65536K, 0% used [0x00000000d5580000,0x00000000d5580000,0x00000000d9580000)
  from space 10752K, 99% used [0x00000000d9580000,0x00000000d9ffd1d8,0x00000000da000000)
  to   space 10752K, 0% used [0x00000000da000000,0x00000000da000000,0x00000000daa80000)
 ParOldGen       total 175104K, used 996K [0x0000000080000000, 0x000000008ab00000, 0x00000000d5580000)
  object space 175104K, 0% used [0x0000000080000000,0x00000000800f9368,0x000000008ab00000)
 Metaspace       used 19994K, capacity 21110K, committed 21248K, reserved 1067008K
  class space    used 2477K, capacity 2711K, committed 2816K, reserved 1048576K
Event: 16.302 GC heap after
Heap after GC invocations=4 (full 1):
 PSYoungGen      total 76288K, used 0K [0x00000000d5580000, 0x00000000daa80000, 0x0000000100000000)
  eden space 65536K, 0% used [0x00000000d5580000,0x00000000d5580000,0x00000000d9580000)
  from space 10752K, 0% used [0x00000000d9580000,0x00000000d9580000,0x00000000da000000)
  to   space 10752K, 0% used [0x00000000da000000,0x00000000da000000,0x00000000daa80000)
 ParOldGen       total 175104K, used 11469K [0x0000000080000000, 0x000000008ab00000, 0x00000000d5580000)
  object space 175104K, 6% used [0x0000000080000000,0x0000000080b33480,0x000000008ab00000)
 Metaspace       used 19921K, capacity 20942K, committed 21248K, reserved 1067008K
  class space    used 2461K, capacity 2683K, committed 2816K, reserved 1048576K
}
Event: 18.732 GC heap before
{Heap before GC invocations=5 (full 1):
 PSYoungGen      total 76288K, used 65536K [0x00000000d5580000, 0x00000000daa80000, 0x0000000100000000)
  eden space 65536K, 100% used [0x00000000d5580000,0x00000000d9580000,0x00000000d9580000)
  from space 10752K, 0% used [0x00000000d9580000,0x00000000d9580000,0x00000000da000000)
  to   space 10752K, 0% used [0x00000000da000000,0x00000000da000000,0x00000000daa80000)
 ParOldGen       total 175104K, used 11469K [0x0000000080000000, 0x000000008ab00000, 0x00000000d5580000)
  object space 175104K, 6% used [0x0000000080000000,0x0000000080b33480,0x000000008ab00000)
 Metaspace       used 24475K, capacity 25682K, committed 25728K, reserved 1071104K
  class space    used 3178K, capacity 3432K, committed 3456K, reserved 1048576K
Event: 18.760 GC heap after
Heap after GC invocations=5 (full 1):
 PSYoungGen      total 76288K, used 10645K [0x00000000d5580000, 0x00000000dcc00000, 0x0000000100000000)
  eden space 65536K, 0% used [0x00000000d5580000,0x00000000d5580000,0x00000000d9580000)
  from space 10752K, 99% used [0x00000000da000000,0x00000000daa65528,0x00000000daa80000)
  to   space 10752K, 0% used [0x00000000d9580000,0x00000000d9580000,0x00000000da000000)
 ParOldGen       total 175104K, used 11469K [0x0000000080000000, 0x000000008ab00000, 0x00000000d5580000)
  object space 175104K, 6% used [0x0000000080000000,0x0000000080b33480,0x000000008ab00000)
 Metaspace       used 24475K, capacity 25682K, committed 25728K, reserved 1071104K
  class space    used 3178K, capacity 3432K, committed 3456K, reserved 1048576K
}

Deoptimization events (10 events):
Event: 15.663 Thread 0x00000194fce18800 Uncommon trap: reason=class_check action=maybe_recompile pc=0x00000194807e8a30 method=java.util.regex.Pattern$BmpCharProperty.match(Ljava/util/regex/Matcher;ILjava/lang/CharSequence;)Z @ 16
Event: 15.681 Thread 0x00000194fce18800 Uncommon trap: reason=unstable_if action=reinterpret pc=0x00000194804d8a70 method=java.lang.String.lastIndexOf([CII[CIII)I @ 66
Event: 16.776 Thread 0x00000194fce18800 Uncommon trap: reason=bimorphic action=maybe_recompile pc=0x00000194807ff438 method=java.util.regex.Pattern$BmpCharProperty.match(Ljava/util/regex/Matcher;ILjava/lang/CharSequence;)Z @ 31
Event: 16.776 Thread 0x00000194fce18800 Uncommon trap: reason=class_check action=maybe_recompile pc=0x00000194807f999c method=java.util.regex.Pattern$CharProperty.match(Ljava/util/regex/Matcher;ILjava/lang/CharSequence;)Z @ 37
Event: 16.779 Thread 0x00000194fce18800 Uncommon trap: reason=bimorphic action=maybe_recompile pc=0x00000194807ff438 method=java.util.regex.Pattern$BmpCharProperty.match(Ljava/util/regex/Matcher;ILjava/lang/CharSequence;)Z @ 31
Event: 16.779 Thread 0x00000194fce18800 Uncommon trap: reason=class_check action=maybe_recompile pc=0x00000194807f999c method=java.util.regex.Pattern$CharProperty.match(Ljava/util/regex/Matcher;ILjava/lang/CharSequence;)Z @ 37
Event: 17.338 Thread 0x00000194fce18800 Uncommon trap: reason=bimorphic action=maybe_recompile pc=0x00000194807ff438 method=java.util.regex.Pattern$BmpCharProperty.match(Ljava/util/regex/Matcher;ILjava/lang/CharSequence;)Z @ 31
Event: 17.338 Thread 0x00000194fce18800 Uncommon trap: reason=bimorphic action=maybe_recompile pc=0x00000194807ff438 method=java.util.regex.Pattern$BmpCharProperty.match(Ljava/util/regex/Matcher;ILjava/lang/CharSequence;)Z @ 31
Event: 18.134 Thread 0x00000194fce18800 Uncommon trap: reason=null_check action=make_not_entrant pc=0x0000019480955408 method=java.lang.reflect.Proxy.isProxyClass(Ljava/lang/Class;)Z @ 3
Event: 19.356 Thread 0x00000194fce18800 Uncommon trap: reason=unstable_if action=reinterpret pc=0x000001948084af4c method=groovy.lang.MetaClassImpl$1MOPIter.processFastArray(Lorg/codehaus/groovy/util/FastArray;)V @ 85

Classes redefined (0 events):
No events

Internal exceptions (10 events):
Event: 19.465 Thread 0x00000194fce18800 Exception <a 'java/lang/ClassNotFoundException': org/codenarc/rule/comments/JavadocEmptyLastLineRuleBeanInfo> (0x00000000d7706fe0) thrown at [C:\Jenkins\temp\workspace\build\src\hotspot\src\share\vm\classfile\systemDictionary.cpp, line 217]
Event: 19.467 Thread 0x00000194fce18800 Exception <a 'java/lang/ClassNotFoundException': org/codenarc/rule/comments/JavadocEmptyLastLineRuleCustomizer> (0x00000000d770eb38) thrown at [C:\Jenkins\temp\workspace\build\src\hotspot\src\share\vm\classfile\systemDictionary.cpp, line 217]
Event: 19.471 Thread 0x00000194fce18800 Exception <a 'java/lang/ClassNotFoundException': org/codenarc/rule/comments/JavadocEmptyParamTagRuleBeanInfo> (0x00000000d77622e8) thrown at [C:\Jenkins\temp\workspace\build\src\hotspot\src\share\vm\classfile\systemDictionary.cpp, line 217]
Event: 19.471 Thread 0x00000194fce18800 Exception <a 'java/lang/ClassNotFoundException': org/codenarc/rule/comments/JavadocEmptyParamTagRuleCustomizer> (0x00000000d7769e50) thrown at [C:\Jenkins\temp\workspace\build\src\hotspot\src\share\vm\classfile\systemDictionary.cpp, line 217]
Event: 19.476 Thread 0x00000194fce18800 Exception <a 'java/lang/ClassNotFoundException': org/codenarc/rule/comments/JavadocEmptyReturnTagRuleBeanInfo> (0x00000000d77b27f0) thrown at [C:\Jenkins\temp\workspace\build\src\hotspot\src\share\vm\classfile\systemDictionary.cpp, line 217]
Event: 19.476 Thread 0x00000194fce18800 Exception <a 'java/lang/ClassNotFoundException': org/codenarc/rule/comments/JavadocEmptyReturnTagRuleCustomizer> (0x00000000d77ba368) thrown at [C:\Jenkins\temp\workspace\build\src\hotspot\src\share\vm\classfile\systemDictionary.cpp, line 217]
Event: 19.481 Thread 0x00000194fce18800 Exception <a 'java/lang/ClassNotFoundException': org/codenarc/rule/comments/JavadocEmptySeeTagRuleBeanInfo> (0x00000000d78029e8) thrown at [C:\Jenkins\temp\workspace\build\src\hotspot\src\share\vm\classfile\systemDictionary.cpp, line 217]
Event: 19.481 Thread 0x00000194fce18800 Exception <a 'java/lang/ClassNotFoundException': org/codenarc/rule/comments/JavadocEmptySeeTagRuleCustomizer> (0x00000000d780a3f8) thrown at [C:\Jenkins\temp\workspace\build\src\hotspot\src\share\vm\classfile\systemDictionary.cpp, line 217]
Event: 19.486 Thread 0x00000194fce18800 Exception <a 'java/lang/ClassNotFoundException': org/codenarc/rule/comments/JavadocEmptySinceTagRuleBeanInfo> (0x00000000d7852c90) thrown at [C:\Jenkins\temp\workspace\build\src\hotspot\src\share\vm\classfile\systemDictionary.cpp, line 217]
Event: 19.486 Thread 0x00000194fce18800 Exception <a 'java/lang/ClassNotFoundException': org/codenarc/rule/comments/JavadocEmptySinceTagRuleCustomizer> (0x00000000d785a7f8) thrown at [C:\Jenkins\temp\workspace\build\src\hotspot\src\share\vm\classfile\systemDictionary.cpp, line 217]

Events (10 events):
Event: 19.486 loading class org/codenarc/rule/comments/JavadocEmptySinceTagRuleBeanInfo
Event: 19.486 loading class org/codenarc/rule/comments/JavadocEmptySinceTagRuleBeanInfo done
Event: 19.486 loading class org/codenarc/rule/comments/JavadocEmptySinceTagRuleBeanInfo
Event: 19.486 loading class org/codenarc/rule/comments/JavadocEmptySinceTagRuleBeanInfo done
Event: 19.486 loading class org/codenarc/rule/comments/JavadocEmptySinceTagRuleCustomizer
Event: 19.486 loading class org/codenarc/rule/comments/JavadocEmptySinceTagRuleCustomizer done
Event: 19.486 loading class org/codenarc/rule/comments/JavadocEmptySinceTagRuleCustomizer
Event: 19.486 loading class org/codenarc/rule/comments/JavadocEmptySinceTagRuleCustomizer done
Event: 19.486 loading class org/codenarc/rule/comments/JavadocEmptySinceTagRuleCustomizer
Event: 19.486 loading class org/codenarc/rule/comments/JavadocEmptySinceTagRuleCustomizer done


Dynamic libraries:
0x00007ff78ecf0000 - 0x00007ff78ed2a000 	C:\Users\ducth\.java-caller\jre\jdk8u292-b10-jre\bin\java.exe
0x00007ffda6660000 - 0x00007ffda6841000 	C:\WINDOWS\SYSTEM32\ntdll.dll
0x00007ffda41c0000 - 0x00007ffda4272000 	C:\WINDOWS\System32\KERNEL32.DLL
0x00007ffda3710000 - 0x00007ffda3983000 	C:\WINDOWS\System32\KERNELBASE.dll
0x00007ffda4320000 - 0x00007ffda43c1000 	C:\WINDOWS\System32\ADVAPI32.dll
0x00007ffda4280000 - 0x00007ffda431e000 	C:\WINDOWS\System32\msvcrt.dll
0x00007ffda4910000 - 0x00007ffda496b000 	C:\WINDOWS\System32\sechost.dll
0x00007ffda3af0000 - 0x00007ffda3c14000 	C:\WINDOWS\System32\RPCRT4.dll
0x00007ffda45d0000 - 0x00007ffda4760000 	C:\WINDOWS\System32\USER32.dll
0x00007ffda36f0000 - 0x00007ffda3710000 	C:\WINDOWS\System32\win32u.dll
0x00007ffda4800000 - 0x00007ffda4828000 	C:\WINDOWS\System32\GDI32.dll
0x00007ffda3330000 - 0x00007ffda34c2000 	C:\WINDOWS\System32\gdi32full.dll
0x00007ffda34d0000 - 0x00007ffda356f000 	C:\WINDOWS\System32\msvcp_win.dll
0x00007ffda39f0000 - 0x00007ffda3aea000 	C:\WINDOWS\System32\ucrtbase.dll
0x00007ffd94ba0000 - 0x00007ffd94e09000 	C:\WINDOWS\WinSxS\amd64_microsoft.windows.common-controls_6595b64144ccf1df_6.0.17134.472_none_fb3f9af53068156d\COMCTL32.dll
0x00007ffda4a30000 - 0x00007ffda4d52000 	C:\WINDOWS\System32\combase.dll
0x00007ffda3570000 - 0x00007ffda35ea000 	C:\WINDOWS\System32\bcryptPrimitives.dll
0x00007ffda61a0000 - 0x00007ffda61cd000 	C:\WINDOWS\System32\IMM32.DLL
0x00007ffd805f0000 - 0x00007ffd806df000 	C:\Users\ducth\.java-caller\jre\jdk8u292-b10-jre\bin\msvcr120.dll
0x00007ffd80150000 - 0x00007ffd801f6000 	C:\Users\ducth\.java-caller\jre\jdk8u292-b10-jre\bin\msvcp120.dll
0x000000006c080000 - 0x000000006c8eb000 	C:\Users\ducth\.java-caller\jre\jdk8u292-b10-jre\bin\server\jvm.dll
0x00007ffda4970000 - 0x00007ffda4978000 	C:\WINDOWS\System32\PSAPI.DLL
0x00007ffd9e640000 - 0x00007ffd9e663000 	C:\WINDOWS\SYSTEM32\WINMM.dll
0x00007ffd8d030000 - 0x00007ffd8d039000 	C:\WINDOWS\SYSTEM32\WSOCK32.dll
0x00007ffda1bc0000 - 0x00007ffda1bca000 	C:\WINDOWS\SYSTEM32\VERSION.dll
0x00007ffda4760000 - 0x00007ffda47cc000 	C:\WINDOWS\System32\WS2_32.dll
0x00007ffd9e610000 - 0x00007ffd9e63a000 	C:\WINDOWS\SYSTEM32\winmmbase.dll
0x00007ffda35f0000 - 0x00007ffda3639000 	C:\WINDOWS\System32\cfgmgr32.dll
0x00007ffda14a0000 - 0x00007ffda14af000 	C:\Users\ducth\.java-caller\jre\jdk8u292-b10-jre\bin\verify.dll
0x00007ffd98cf0000 - 0x00007ffd98d19000 	C:\Users\ducth\.java-caller\jre\jdk8u292-b10-jre\bin\java.dll
0x00007ffd98440000 - 0x00007ffd98456000 	C:\Users\ducth\.java-caller\jre\jdk8u292-b10-jre\bin\zip.dll
0x00007ffda4d60000 - 0x00007ffda61a0000 	C:\WINDOWS\System32\SHELL32.dll
0x00007ffda4980000 - 0x00007ffda4a29000 	C:\WINDOWS\System32\shcore.dll
0x00007ffda2c20000 - 0x00007ffda332d000 	C:\WINDOWS\System32\windows.storage.dll
0x00007ffda4570000 - 0x00007ffda45c1000 	C:\WINDOWS\System32\shlwapi.dll
0x00007ffda29f0000 - 0x00007ffda2a01000 	C:\WINDOWS\System32\kernel.appcore.dll
0x00007ffda2970000 - 0x00007ffda298f000 	C:\WINDOWS\System32\profapi.dll
0x00007ffda29a0000 - 0x00007ffda29ec000 	C:\WINDOWS\System32\powrprof.dll
0x00007ffda2990000 - 0x00007ffda299a000 	C:\WINDOWS\System32\FLTLIB.DLL
0x00007ffd97d30000 - 0x00007ffd97d4a000 	C:\Users\ducth\.java-caller\jre\jdk8u292-b10-jre\bin\net.dll
0x00007ffda21f0000 - 0x00007ffda2256000 	C:\WINDOWS\system32\mswsock.dll
0x00007ffd94900000 - 0x00007ffd94912000 	C:\Users\ducth\.java-caller\jre\jdk8u292-b10-jre\bin\nio.dll
0x00007ffda23a0000 - 0x00007ffda23b7000 	C:\WINDOWS\SYSTEM32\CRYPTSP.dll
0x00007ffda1dd0000 - 0x00007ffda1e03000 	C:\WINDOWS\system32\rsaenh.dll
0x00007ffda24d0000 - 0x00007ffda24f5000 	C:\WINDOWS\SYSTEM32\bcrypt.dll
0x00007ffda2870000 - 0x00007ffda2898000 	C:\WINDOWS\SYSTEM32\USERENV.dll
0x00007ffda23c0000 - 0x00007ffda23cb000 	C:\WINDOWS\SYSTEM32\CRYPTBASE.dll
0x00007ffda1f70000 - 0x00007ffda1fa8000 	C:\WINDOWS\SYSTEM32\IPHLPAPI.DLL
0x00007ffda47d0000 - 0x00007ffda47d8000 	C:\WINDOWS\System32\NSI.dll
0x00007ffd95a50000 - 0x00007ffd95a66000 	C:\WINDOWS\SYSTEM32\dhcpcsvc6.DLL
0x00007ffd95f90000 - 0x00007ffd95faa000 	C:\WINDOWS\SYSTEM32\dhcpcsvc.DLL
0x00007ffda1fb0000 - 0x00007ffda206e000 	C:\WINDOWS\SYSTEM32\DNSAPI.dll
0x00007ffd954e0000 - 0x00007ffd954ea000 	C:\Windows\System32\rasadhlp.dll
0x00007ffd95f10000 - 0x00007ffd95f82000 	C:\WINDOWS\System32\fwpuclnt.dll
0x00007ffda13a0000 - 0x00007ffda13ad000 	C:\Users\ducth\.java-caller\jre\jdk8u292-b10-jre\bin\management.dll
0x00007ffd8d260000 - 0x00007ffd8d276000 	C:\WINDOWS\system32\napinsp.dll
0x00007ffd8d240000 - 0x00007ffd8d25a000 	C:\WINDOWS\system32\pnrpnsp.dll
0x00007ffd9f330000 - 0x00007ffd9f349000 	C:\WINDOWS\system32\NLAapi.dll
0x00007ffd8d230000 - 0x00007ffd8d23e000 	C:\WINDOWS\System32\winrnr.dll
0x00007ffd8d210000 - 0x00007ffd8d225000 	C:\WINDOWS\System32\wshbth.dll

VM Arguments:
jvm_args: -Xms256m -Xmx2048m 
java_command: com.nvuillam.CodeNarcServer --server
java_class_path (initial): c:\Users\ducth\.vscode\extensions\nicolasvuillamy.vscode-groovy-lint-1.7.4\server\node_modules\npm-groovy-lint\lib\java\CodeNarcServer.jar;c:\Users\ducth\.vscode\extensions\nicolasvuillamy.vscode-groovy-lint-1.7.4\server\node_modules\npm-groovy-lint\lib\java\CodeNarc-2.2.0.jar;c:\Users\ducth\.vscode\extensions\nicolasvuillamy.vscode-groovy-lint-1.7.4\server\node_modules\npm-groovy-lint\lib\java\CodeNarcServer.jar;c:\Users\ducth\.vscode\extensions\nicolasvuillamy.vscode-groovy-lint-1.7.4\server\node_modules\npm-groovy-lint\lib\java\gmetrics-1.1.jar;c:\Users\ducth\.vscode\extensions\nicolasvuillamy.vscode-groovy-lint-1.7.4\server\node_modules\npm-groovy-lint\lib\java\log4j-api-2.17.1.jar;c:\Users\ducth\.vscode\extensions\nicolasvuillamy.vscode-groovy-lint-1.7.4\server\node_modules\npm-groovy-lint\lib\java\log4j-core-2.17.1.jar;c:\Users\ducth\.vscode\extensions\nicolasvuillamy.vscode-groovy-lint-1.7.4\server\node_modules\npm-groovy-lint\lib\java\log4j-slf4j-impl-2.17.1.jar;c:\Users\ducth\.vscode\extensions\nicolasvuillamy.vscode-groovy-lint-1.7.4\server\node_modules\npm-groovy-lint\lib\java\slf4j-api-1.7.9.jar
Launcher Type: SUN_STANDARD

Environment Variables:
JAVA_HOME=C:\Users\ducth\.java-caller\jre\jdk8u292-b10-jre
PATH=C:\Users\ducth\.java-caller\jre\jdk8u292-b10-jre\bin;C:\Program Files\Common Files\Oracle\Java\javapath;E:\app\thuanboss\product\11.2.0\dbhome_1\bin;E:\oracle12\thuanboss2\product\12.1.0\dbhome_2\bin;E:\app\thuanboss2\product\12.1.0\dbhome_1\bin;C:\Program Files (x86)\Common Files\Oracle\Java\javapath;C:\WINDOWS\system32;C:\WINDOWS;C:\WINDOWS\System32\Wbem;C:\WINDOWS\System32\WindowsPowerShell\v1.0\;C:\Program Files\Git\cmd;D:\xampp\php\;C:\ProgramData\ComposerSetup\bin;C:\Program Files\MongoDB\Server\3.2\bin;C:\Program Files\PuTTY\;"C:\Program Files\Java\jdk-11.0.2\bin;";C:\Program Files (x86)\ATI Technologies\ATI.ACE\Core-Static;D:\Microsoft VS Code\bin;C:\Program Files (x86)\Microsoft SQL Server\Client SDK\ODBC\130\Tools\Binn\;C:\Program Files (x86)\Microsoft SQL Server\140\Tools\Binn\;C:\Program Files (x86)\Microsoft SQL Server\140\DTS\Binn\;C:\Program Files (x86)\Microsoft SQL Server\140\Tools\Binn\ManagementStudio\;D:\nvm;D:\nodejs;C:\WINDOWS\System32\OpenSSH\;D:\SVN-installed\bin;D:\apache-maven-3.6.2\bin;C:\Program Files (x86)\Yarn\bin\;C:\Program Files (x86)\dotnet\;C:\Program Files\Git\bin\;C:\Program Files\Git\cmd\;C:\Users\ducth\AppData\Local\Android\Sdk\platform-tools;C:\Users\ducth\AppData\Local\Android\Sdk;C:\Program Files\dotnet\;C:\Program Files (x86)\MSBuild\Microsoft.Cpp\v4.0\V140;C:\gradle\gradle-7.2\bin;C:\Program Files\Java\jdk-11.0.2\bin;C:\Users\ducth\AppData\Local\Microsoft\WindowsApps;D:\Microsoft VS Code\bin;C:\Users\ducth\AppData\Roaming\Composer\vendor\bin;D:\nvm;D:\nodejs;D:\heroku\bin;C:\Python27;C:\Python27\Scripts;C:\Users\ducth\AppData\Local\Yarn\bin;C:\Users\ducth\AppData\Local\Android\Sdk\platform-tools;C:\Program Files\Java\jdk-11.0.2\bin;
USERNAME=thuanboss
OS=Windows_NT
PROCESSOR_IDENTIFIER=Intel64 Family 6 Model 69 Stepping 1, GenuineIntel



---------------  S Y S T E M  ---------------

OS: Windows 10.0 , 64 bit Build 17134 (10.0.17134.1)

CPU:total 4 (initial active 4) (2 cores per cpu, 2 threads per core) family 6 model 69 stepping 1, cmov, cx8, fxsr, mmx, sse, sse2, sse3, ssse3, sse4.1, sse4.2, popcnt, avx, avx2, aes, clmul, erms, lzcnt, ht, tsc, tscinvbit, bmi1, bmi2

Memory: 4k page, physical 12468588k(892872k free), swap 38068584k(4676k free)

vm_info: OpenJDK 64-Bit Server VM (25.292-b10) for windows-amd64 JRE (1.8.0_292-b10), built on Apr 21 2021 04:52:30 by "jenkins" with MS VC++ 12.0 (VS2013)

time: Tue Jan 11 09:32:08 2022
timezone: SE Asia Standard Time
elapsed time: 19.538084 seconds (0d 0h 0m 19s)

